Macrofaunal Total Biomass
…
Macrofaunal Total Biomass

Chih-Lin Wei

2020-08-16

1 Mean density

1.1 per cruise

## # A tibble: 1,826 x 8
##    Cruise   Station Deployment Tube  Section Taxon         Abundance Comment
##    <chr>    <chr>        <dbl> <chr> <chr>   <chr>             <dbl> <chr>  
##  1 OR1_1096 GC1              3 1     0-15    Nemertea              3 <NA>   
##  2 OR1_1096 GC1              3 1     0-15    Harpacticoida         3 <NA>   
##  3 OR1_1096 GC1              3 2     0-15    Amphipoda             3 <NA>   
##  4 OR1_1096 GC1              3 2     0-15    Harpacticoida         1 <NA>   
##  5 OR1_1096 GC1              3 2     0-15    Nebaliacea            2 <NA>   
##  6 OR1_1096 GC1              3 3     0-15    Nemertea              1 <NA>   
##  7 OR1_1096 GC1              3 3     0-15    Ostracoda             5 <NA>   
##  8 OR1_1096 GC1              3 3     0-15    Amphipoda             1 <NA>   
##  9 OR1_1096 GC2              3 1     0-15    Nematoda              1 <NA>   
## 10 OR1_1096 GC2              3 2     0-15    Nemertea              1 <NA>   
## # ... with 1,816 more rows
…
